…
Use 5000 bootstrap samples and, for each bootstrap sample, produce
estimates of these two quantities.

``` r
boot_sample = function(df) {
  sample_frac(df, replace = TRUE)
}
```

``` r
weather_df %>% 
  modelr::bootstrap(1000)
```

    ## # A tibble: 1,000 × 2
    ##    strap                .id  
    ##    <list>               <chr>
    ##  1 <resample [365 x 6]> 0001 
    ##  2 <resample [365 x 6]> 0002 
    ##  3 <resample [365 x 6]> 0003 
    ##  4 <resample [365 x 6]> 0004 
    ##  5 <resample [365 x 6]> 0005 
    ##  6 <resample [365 x 6]> 0006 
    ##  7 <resample [365 x 6]> 0007 
    ##  8 <resample [365 x 6]> 0008 
    ##  9 <resample [365 x 6]> 0009 
    ## 10 <resample [365 x 6]> 0010 
    ## # ℹ 990 more rows
…
Make this comparison in terms of the cross-validated prediction error;
use crossv_mc and functions in purrr as appropriate.

``` r
cv_df = crossv_mc(birth_weight_df, 100)
cv_df |> pull(train) |> nth(1) |> as_tibble()
```

    ## # A tibble: 3,473 × 20
    ##    babysex bhead blength   bwt delwt fincome frace gaweeks malform menarche
    ##    <chr>   <dbl>   <dbl> <dbl> <dbl>   <dbl> <chr>   <dbl> <chr>      <dbl>
    ##  1 female     34      51  3629   177      35 white    39.9 absent        13
    ##  2 male       34      48  3062   156      65 black    25.9 absent        14
    ##  3 female     36      50  3345   148      85 white    39.9 absent        12
    ##  4 male       34      52  3062   157      55 white    40   absent        14
    ##  5 female     34      52  3374   156       5 white    41.6 absent        13
    ##  6 male       33      52  3374   129      55 white    40.7 absent        12
    ##  7 female     33      46  2523   126      96 black    40.3 absent        14
    ##  8 female     33      49  2778   140       5 white    37.4 absent        12
    ##  9 male       36      52  3515   146      85 white    40.3 absent        11
    ## 10 male       33      50  3459   169      75 black    40.7 absent        12
    ## # ℹ 3,463 more rows
    ## # ℹ 10 more variables: mheight <dbl>, momage <dbl>, mrace <chr>, parity <dbl>,
    ## #   pnumlbw <dbl>, pnumsga <dbl>, ppbmi <dbl>, ppwt <dbl>, smoken <dbl>,
    ## #   wtgain <dbl>

``` r
cv_df |> pull(test) |> nth(1) |> as_tibble()
```

    ## # A tibble: 869 × 20
    ##    babysex bhead blength   bwt delwt fincome frace gaweeks malform menarche
    ##    <chr>   <dbl>   <dbl> <dbl> <dbl>   <dbl> <chr>   <dbl> <chr>      <dbl>
    ##  1 female     35      50  3175   140      85 black    40.6 absent        14
    ##  2 female     35      52  3289   135      55 white    40.6 absent        13
    ##  3 female     34      49  3118   161      45 black    38.9 absent        10
    ##  4 female     35      51  3827   130      45 white    41.3 absent        12
    ##  5 female     34      49  2948   135      75 white    42.7 absent        12
    ##  6 male       35      51  3147   165      65 white    40.1 absent        13
    ##  7 female     35      52  3487   121      45 white    39.9 absent        11
    ##  8 male       34      51  3459   123      45 white    40   absent        12
    ##  9 male       34      47  3090   147      85 white    42.1 absent        12
    ## 10 female     34      46  2977   145      75 black    47.7 absent        11
    ## # ℹ 859 more rows
    ## # ℹ 10 more variables: mheight <dbl>, momage <dbl>, mrace <chr>, parity <dbl>,
    ## #   pnumlbw <dbl>, pnumsga <dbl>, ppbmi <dbl>, ppwt <dbl>, smoken <dbl>,
    ## #   wtgain <dbl>
…
